{
  "outputFormatters": [
    [ "markdownlint-cli2-formatter-codequality" ],
    [
      "markdownlint-cli2-formatter-prettier.js",
      {
        "colors": {
          "fileName": "white",
          "separator": "yellow",
          "ruleText": "cyan",
          "detailsAndContext": "cyan"
        }
      }
    ]
  ],
  "config": {
    "default": true,
    "code-block-style": { "style": "fenced" },
    "first-header-h1": false,
    "first-line-h1": false,
    "header-style": { "style": "atx" },
    "heading-increment": false,
    "hr-style": { "style": "---" },
    "line-length": false,
    "no-bare-urls": false,
    "no-duplicate-heading": { "siblings_only": true },
    "no-emphasis-as-heading": false,
    "no-inline-html": false,
    "no-trailing-punctuation": { "punctuation": ".,;:!。，；：！？" }
  },
  "ignores": [
    "content/handbook/company/culture/all-remote/remote-work-report-2020.md",
    "content/handbook/company/culture/all-remote/universal-remote.md"
  ]
}
